7|7|7|2004-23-02
8|8|100|2017-01-12
9|4|100|2016-01-12
10|7|13|2017-01-03
11|7|100|2017-01-05
12|7|4|2017-01-02
14|8|7|2017-01-12
15|3|13|2017-01-09
17|1|7|2017-01-02
18|2|7|2017-01-04
19|3|4|2017-01-03
